<?xml version="1.0" encoding="UTF-8" standalone="no"?>
<svg
   xmlns:dc="http://purl.org/dc/elements/1.1/"
   xmlns:cc="http://creativecommons.org/ns#"
   xmlns:rdf="http://www.w3.org/1999/02/22-rdf-syntax-ns#"
   xmlns:svg="http://www.w3.org/2000/svg"
   xmlns="http://www.w3.org/2000/svg"
   xmlns:sodipodi="http://sodipodi.sourceforge.net/DTD/sodipodi-0.dtd"
   xmlns:inkscape="http://www.inkscape.org/namespaces/inkscape"
   inkscape:version="1.0 (4035a4fb49, 2020-05-01)"
   sodipodi:docname="maximize-active.svg"
   id="svg12"
   version="1.1"
   viewBox="0 0 32 32"
   height="32"
   width="32">
  <metadata
     id="metadata18">
    <rdf:RDF>
      <cc:Work
         rdf:about="">
        <dc:format>image/svg+xml</dc:format>
        <dc:type
           rdf:resource="http://purl.org/dc/dcmitype/StillImage" />
      </cc:Work>
    </rdf:RDF>
  </metadata>
  <defs
     id="defs16" />
  <sodipodi:namedview
     inkscape:document-rotation="0"
     inkscape:current-layer="svg12"
     inkscape:window-maximized="1"
     inkscape:window-y="0"
     inkscape:window-x="0"
     inkscape:cy="-6.9830508"
     inkscape:cx="-15.932204"
     inkscape:zoom="7.375"
     showgrid="false"
     id="namedview14"
     inkscape:window-height="1015"
     inkscape:window-width="1920"
     inkscape:pageshadow="2"
     inkscape:pageopacity="0"
     guidetolerance="10"
     gridtolerance="10"
     objecttolerance="10"
     borderopacity="1"
     bordercolor="#666666"
     pagecolor="#ffffff" />
  <rect
     style="fill:#cfcfcf;fill-opacity:1"
     id="rect2"
     fill="#E0E0E0"
     height="32"
     width="32" />
  <rect
     style="fill:#969696;fill-opacity:1"
     id="rect4"
     fill-opacity="0.4"
     fill="#FFFFFF"
     height="1"
     width="32" />
  <g
     id="g10"
     opacity="0.6"
     fill="#000000">
    <circle
       id="circle6"
       opacity="0"
       r="12"
       cy="16"
       cx="16" />
    <path
       id="path8"
       d="m12 12v8h8v-8zm2 2h4v4h-4z" />
  </g>
  <rect
     y="31"
     x="0"
     width="32"
     height="1"
     fill="#FFFFFF"
     fill-opacity="0.4"
     id="rect112"
     style="fill:#969696;fill-opacity:1" />
</svg>
