<?xml version="1.0" encoding="UTF-8" standalone="no"?>
<svg
   xmlns:dc="http://purl.org/dc/elements/1.1/"
   xmlns:cc="http://creativecommons.org/ns#"
   xmlns:rdf="http://www.w3.org/1999/02/22-rdf-syntax-ns#"
   xmlns:svg="http://www.w3.org/2000/svg"
   xmlns="http://www.w3.org/2000/svg"
   xmlns:sodipodi="http://sodipodi.sourceforge.net/DTD/sodipodi-0.dtd"
   xmlns:inkscape="http://www.inkscape.org/namespaces/inkscape"
   width="32"
   height="32"
   viewBox="0 0 32 32"
   version="1.1"
   id="svg66"
   sodipodi:docname="shade-inactive.svg"
   inkscape:version="1.0 (4035a4fb49, 2020-05-01)">
  <metadata
     id="metadata72">
    <rdf:RDF>
      <cc:Work
         rdf:about="">
        <dc:format>image/svg+xml</dc:format>
        <dc:type
           rdf:resource="http://purl.org/dc/dcmitype/StillImage" />
      </cc:Work>
    </rdf:RDF>
  </metadata>
  <defs
     id="defs70" />
  <sodipodi:namedview
     pagecolor="#ffffff"
     bordercolor="#666666"
     borderopacity="1"
     objecttolerance="10"
     gridtolerance="10"
     guidetolerance="10"
     inkscape:pageopacity="0"
     inkscape:pageshadow="2"
     inkscape:window-width="1920"
     inkscape:window-height="1007"
     id="namedview68"
     showgrid="false"
     inkscape:zoom="7.375"
     inkscape:cx="-16.067796"
     inkscape:cy="14.711864"
     inkscape:window-x="0"
     inkscape:window-y="0"
     inkscape:window-maximized="1"
     inkscape:current-layer="svg66"
     inkscape:document-rotation="0" />
  <rect
     width="32"
     height="32"
     fill="#D6D6D6"
     id="rect56"
     style="fill:#e6e6e6;fill-opacity:1" />
  <rect
     width="32"
     height="1"
     fill="#FFFFFF"
     fill-opacity="0.4"
     id="rect58"
     style="fill:#969696;fill-opacity:1" />
  <g
     fill="#000000"
     opacity="0.38"
     id="g64">
    <circle
       cx="16"
       cy="16"
       r="12"
       opacity="0"
       id="circle60" />
    <path
       d="m10 18 1.41 1.41 4.59-4.59 4.59 4.59 1.41-1.41-6-6z"
       id="path62" />
  </g>
  <rect
     style="fill:#969696;fill-opacity:1"
     id="rect112"
     fill-opacity="0.4"
     fill="#FFFFFF"
     height="1"
     width="32"
     x="-2.3841858e-07"
     y="31" />
</svg>
