<?xml version="1.0" encoding="UTF-8" standalone="no"?>
<svg
   xmlns:dc="http://purl.org/dc/elements/1.1/"
   xmlns:cc="http://creativecommons.org/ns#"
   xmlns:rdf="http://www.w3.org/1999/02/22-rdf-syntax-ns#"
   xmlns:svg="http://www.w3.org/2000/svg"
   xmlns="http://www.w3.org/2000/svg"
   xmlns:sodipodi="http://sodipodi.sourceforge.net/DTD/sodipodi-0.dtd"
   xmlns:inkscape="http://www.inkscape.org/namespaces/inkscape"
   width="2"
   height="32"
   viewBox="0 0 2 32"
   version="1.1"
   id="svg6"
   sodipodi:docname="top-right-inactive.svg"
   inkscape:version="1.0 (4035a4fb49, 2020-05-01)">
  <metadata
     id="metadata12">
    <rdf:RDF>
      <cc:Work
         rdf:about="">
        <dc:format>image/svg+xml</dc:format>
        <dc:type
           rdf:resource="http://purl.org/dc/dcmitype/StillImage" />
        <dc:title></dc:title>
      </cc:Work>
    </rdf:RDF>
  </metadata>
  <defs
     id="defs10" />
  <sodipodi:namedview
     pagecolor="#ffffff"
     bordercolor="#666666"
     borderopacity="1"
     objecttolerance="10"
     gridtolerance="10"
     guidetolerance="10"
     inkscape:pageopacity="0"
     inkscape:pageshadow="2"
     inkscape:window-width="1920"
     inkscape:window-height="1007"
     id="namedview8"
     showgrid="false"
     inkscape:zoom="18.627844"
     inkscape:cx="-12.46122"
     inkscape:cy="20.852549"
     inkscape:window-x="0"
     inkscape:window-y="0"
     inkscape:window-maximized="1"
     inkscape:current-layer="svg6"
     inkscape:document-rotation="0" />
  <rect
     width="2"
     height="32"
     id="rect2"
     style="fill:#e6e6e6;fill-opacity:1"
     fill="#E0E0E0" />
  <rect
     width="2"
     height="1"
     id="rect4"
     x="0"
     y="0"
     style="fill:#969696;fill-opacity:1;stroke-width:1" />
  <rect
     width="1"
     height="32"
     id="rect4-8"
     x="1"
     y="0"
     style="fill:#969696;fill-opacity:1;stroke-width:4" />
  <rect
     style="fill:#969696;fill-opacity:1;stroke-width:1"
     y="31.000002"
     x="0"
     id="rect4-3"
     height="1"
     width="2" />
</svg>
